2021-03-02 13:35:54,088 ERROR: Exception on /user/Nata [GET] [in C:\Users\admin\Miniconda3\lib\site-packages\flask\app.py:1892]
Traceback (most recent call last):
  File "C:\Users\admin\Miniconda3\lib\site-packages\flask\app.py", line 2447, in wsgi_app
    response = self.full_dispatch_request()
  File "C:\Users\admin\Miniconda3\lib\site-packages\flask\app.py", line 1952, in full_dispatch_request
    rv = self.handle_user_exception(e)
  File "C:\Users\admin\Miniconda3\lib\site-packages\flask\app.py", line 1821, in handle_user_exception
    reraise(exc_type, exc_value, tb)
  File "C:\Users\admin\Miniconda3\lib\site-packages\flask\_compat.py", line 39, in reraise
    raise value
  File "C:\Users\admin\Miniconda3\lib\site-packages\flask\app.py", line 1950, in full_dispatch_request
    rv = self.dispatch_request()
  File "C:\Users\admin\Miniconda3\lib\site-packages\flask\app.py", line 1936, in dispatch_request
    return self.view_functions[rule.endpoint](**req.view_args)
  File "C:\Users\admin\Miniconda3\lib\site-packages\flask_login\utils.py", line 272, in decorated_view
    return func(*args, **kwargs)
  File "C:\Users\admin\PycharmProjects\natali_flask\application\routes.py", line 127, in user
    return render_template('user.html', user=user, posts=posts_items, next_url=next_url, prev_url=prev_url)
  File "C:\Users\admin\Miniconda3\lib\site-packages\flask\templating.py", line 140, in render_template
    ctx.app,
  File "C:\Users\admin\Miniconda3\lib\site-packages\flask\templating.py", line 120, in _render
    rv = template.render(context)
  File "C:\Users\admin\Miniconda3\lib\site-packages\jinja2\environment.py", line 1090, in render
    self.environment.handle_exception()
  File "C:\Users\admin\Miniconda3\lib\site-packages\jinja2\environment.py", line 832, in handle_exception
    reraise(*rewrite_traceback_stack(source=source))
  File "C:\Users\admin\Miniconda3\lib\site-packages\jinja2\_compat.py", line 28, in reraise
    raise value.with_traceback(tb)
  File "C:\Users\admin\PycharmProjects\natali_flask\application\templates\user.html", line 1, in top-level template code
    {% extends "base.html" %}
  File "C:\Users\admin\PycharmProjects\natali_flask\application\templates\base.html", line 1, in top-level template code
    {% extends 'bootstrap/base.html' %}
  File "C:\Users\admin\Miniconda3\lib\site-packages\flask_bootstrap\templates\bootstrap\base.html", line 1, in top-level template code
    {% block doc -%}
  File "C:\Users\admin\Miniconda3\lib\site-packages\flask_bootstrap\templates\bootstrap\base.html", line 4, in block "doc"
    {%- block html %}
  File "C:\Users\admin\Miniconda3\lib\site-packages\flask_bootstrap\templates\bootstrap\base.html", line 20, in block "html"
    {% block body -%}
  File "C:\Users\admin\Miniconda3\lib\site-packages\flask_bootstrap\templates\bootstrap\base.html", line 23, in block "body"
    {% block content -%}
  File "C:\Users\admin\PycharmProjects\natali_flask\application\templates\base.html", line 48, in block "content"
    {% block app_content %}{% endblock %}
  File "C:\Users\admin\PycharmProjects\natali_flask\application\templates\user.html", line 11, in block "app_content"
    <p>{{ user.followers.count() }} followers, {{ user.followed.count() }} following.</p>
TypeError: count() takes exactly one argument (0 given)
2021-03-02 13:36:10,691 ERROR: Exception on /user/Nata [GET] [in C:\Users\admin\Miniconda3\lib\site-packages\flask\app.py:1892]
Traceback (most recent call last):
  File "C:\Users\admin\Miniconda3\lib\site-packages\flask\app.py", line 2447, in wsgi_app
    response = self.full_dispatch_request()
  File "C:\Users\admin\Miniconda3\lib\site-packages\flask\app.py", line 1952, in full_dispatch_request
    rv = self.handle_user_exception(e)
  File "C:\Users\admin\Miniconda3\lib\site-packages\flask\app.py", line 1821, in handle_user_exception
    reraise(exc_type, exc_value, tb)
  File "C:\Users\admin\Miniconda3\lib\site-packages\flask\_compat.py", line 39, in reraise
    raise value
  File "C:\Users\admin\Miniconda3\lib\site-packages\flask\app.py", line 1950, in full_dispatch_request
    rv = self.dispatch_request()
  File "C:\Users\admin\Miniconda3\lib\site-packages\flask\app.py", line 1936, in dispatch_request
    return self.view_functions[rule.endpoint](**req.view_args)
  File "C:\Users\admin\Miniconda3\lib\site-packages\flask_login\utils.py", line 272, in decorated_view
    return func(*args, **kwargs)
  File "C:\Users\admin\PycharmProjects\natali_flask\application\routes.py", line 127, in user
    return render_template('user.html', user=user, posts=posts_items, next_url=next_url, prev_url=prev_url)
  File "C:\Users\admin\Miniconda3\lib\site-packages\flask\templating.py", line 140, in render_template
    ctx.app,
  File "C:\Users\admin\Miniconda3\lib\site-packages\flask\templating.py", line 120, in _render
    rv = template.render(context)
  File "C:\Users\admin\Miniconda3\lib\site-packages\jinja2\environment.py", line 1090, in render
    self.environment.handle_exception()
  File "C:\Users\admin\Miniconda3\lib\site-packages\jinja2\environment.py", line 832, in handle_exception
    reraise(*rewrite_traceback_stack(source=source))
  File "C:\Users\admin\Miniconda3\lib\site-packages\jinja2\_compat.py", line 28, in reraise
    raise value.with_traceback(tb)
  File "C:\Users\admin\PycharmProjects\natali_flask\application\templates\user.html", line 1, in top-level template code
    {% extends "base.html" %}
  File "C:\Users\admin\PycharmProjects\natali_flask\application\templates\base.html", line 1, in top-level template code
    {% extends 'bootstrap/base.html' %}
  File "C:\Users\admin\Miniconda3\lib\site-packages\flask_bootstrap\templates\bootstrap\base.html", line 1, in top-level template code
    {% block doc -%}
  File "C:\Users\admin\Miniconda3\lib\site-packages\flask_bootstrap\templates\bootstrap\base.html", line 4, in block "doc"
    {%- block html %}
  File "C:\Users\admin\Miniconda3\lib\site-packages\flask_bootstrap\templates\bootstrap\base.html", line 20, in block "html"
    {% block body -%}
  File "C:\Users\admin\Miniconda3\lib\site-packages\flask_bootstrap\templates\bootstrap\base.html", line 23, in block "body"
    {% block content -%}
  File "C:\Users\admin\PycharmProjects\natali_flask\application\templates\base.html", line 48, in block "content"
    {% block app_content %}{% endblock %}
  File "C:\Users\admin\PycharmProjects\natali_flask\application\templates\user.html", line 11, in block "app_content"
    <p>{{ user.followers.count() }} followers, {{ user.followed.count() }} following.</p>
TypeError: count() takes exactly one argument (0 given)
2021-03-02 13:42:03,118 INFO: Microblog startup [in C:\Users\admin\PycharmProjects\natali_flask\application\__init__.py:45]
2021-03-02 13:42:31,422 ERROR: Exception on /user/Nata [GET] [in C:\Users\admin\Miniconda3\lib\site-packages\flask\app.py:1892]
Traceback (most recent call last):
  File "C:\Users\admin\Miniconda3\lib\site-packages\flask\app.py", line 2447, in wsgi_app
    response = self.full_dispatch_request()
  File "C:\Users\admin\Miniconda3\lib\site-packages\flask\app.py", line 1952, in full_dispatch_request
    rv = self.handle_user_exception(e)
  File "C:\Users\admin\Miniconda3\lib\site-packages\flask\app.py", line 1821, in handle_user_exception
    reraise(exc_type, exc_value, tb)
  File "C:\Users\admin\Miniconda3\lib\site-packages\flask\_compat.py", line 39, in reraise
    raise value
  File "C:\Users\admin\Miniconda3\lib\site-packages\flask\app.py", line 1950, in full_dispatch_request
    rv = self.dispatch_request()
  File "C:\Users\admin\Miniconda3\lib\site-packages\flask\app.py", line 1936, in dispatch_request
    return self.view_functions[rule.endpoint](**req.view_args)
  File "C:\Users\admin\Miniconda3\lib\site-packages\flask_login\utils.py", line 272, in decorated_view
    return func(*args, **kwargs)
  File "C:\Users\admin\PycharmProjects\natali_flask\application\routes.py", line 127, in user
    return render_template('user.html', user=user, posts=posts_items, next_url=next_url, prev_url=prev_url)
  File "C:\Users\admin\Miniconda3\lib\site-packages\flask\templating.py", line 140, in render_template
    ctx.app,
  File "C:\Users\admin\Miniconda3\lib\site-packages\flask\templating.py", line 120, in _render
    rv = template.render(context)
  File "C:\Users\admin\Miniconda3\lib\site-packages\jinja2\environment.py", line 1090, in render
    self.environment.handle_exception()
  File "C:\Users\admin\Miniconda3\lib\site-packages\jinja2\environment.py", line 832, in handle_exception
    reraise(*rewrite_traceback_stack(source=source))
  File "C:\Users\admin\Miniconda3\lib\site-packages\jinja2\_compat.py", line 28, in reraise
    raise value.with_traceback(tb)
  File "C:\Users\admin\PycharmProjects\natali_flask\application\templates\user.html", line 2, in top-level template code
    {% import 'bootstrap/wtf.html' as wtf %}
  File "C:\Users\admin\PycharmProjects\natali_flask\application\templates\base.html", line 1, in top-level template code
    {% extends 'bootstrap/base.html' %}
  File "C:\Users\admin\Miniconda3\lib\site-packages\flask_bootstrap\templates\bootstrap\base.html", line 1, in top-level template code
    {% block doc -%}
  File "C:\Users\admin\Miniconda3\lib\site-packages\flask_bootstrap\templates\bootstrap\base.html", line 4, in block "doc"
    {%- block html %}
  File "C:\Users\admin\Miniconda3\lib\site-packages\flask_bootstrap\templates\bootstrap\base.html", line 20, in block "html"
    {% block body -%}
  File "C:\Users\admin\Miniconda3\lib\site-packages\flask_bootstrap\templates\bootstrap\base.html", line 23, in block "body"
    {% block content -%}
  File "C:\Users\admin\PycharmProjects\natali_flask\application\templates\base.html", line 48, in block "content"
    {% block app_content %}{% endblock %}
  File "C:\Users\admin\PycharmProjects\natali_flask\application\templates\user.html", line 12, in block "app_content"
    <p>{{ user.followers.count() }} followers, {{ user.followed.count() }} following.</p>
TypeError: count() takes exactly one argument (0 given)
