2021-02-17 14:38:05,641 ERROR: Exception on /reset_password/eyJ0eXAiOiJKV1QiLCJhbGciOiJIUzI1NiJ9.eyJyZXNldF9wYXNzd29yZCI6NSwiZXhwIjoxNjEzNTY2MDU5Ljg0ODk5NH0.cUZENzBE0Kfcz85Uu-rF6mo3cCHfzYWXla4VzXeIgp0 [POST] [in C:\Users\admin\Miniconda3\lib\site-packages\flask\app.py:1892]
Traceback (most recent call last):
  File "C:\Users\admin\Miniconda3\lib\site-packages\flask\app.py", line 2447, in wsgi_app
    response = self.full_dispatch_request()
  File "C:\Users\admin\Miniconda3\lib\site-packages\flask\app.py", line 1952, in full_dispatch_request
    rv = self.handle_user_exception(e)
  File "C:\Users\admin\Miniconda3\lib\site-packages\flask\app.py", line 1821, in handle_user_exception
    reraise(exc_type, exc_value, tb)
  File "C:\Users\admin\Miniconda3\lib\site-packages\flask\_compat.py", line 39, in reraise
    raise value
  File "C:\Users\admin\Miniconda3\lib\site-packages\flask\app.py", line 1950, in full_dispatch_request
    rv = self.dispatch_request()
  File "C:\Users\admin\Miniconda3\lib\site-packages\flask\app.py", line 1936, in dispatch_request
    return self.view_functions[rule.endpoint](**req.view_args)
  File "C:\Users\admin\PycharmProjects\natali_flask\application\routes.py", line 197, in reset_password
    user.generate_passwod_hash(form.password.data)
AttributeError: 'User' object has no attribute 'generate_passwod_hash'
2021-02-17 14:38:39,061 INFO: Microblog startup [in C:\Users\admin\PycharmProjects\natali_flask\application\__init__.py:43]
2021-02-17 14:39:10,869 ERROR: Exception on /reset_password/eyJ0eXAiOiJKV1QiLCJhbGciOiJIUzI1NiJ9.eyJyZXNldF9wYXNzd29yZCI6NSwiZXhwIjoxNjEzNTY2MTI4LjgzMDU0MTh9.SzAQ0SnrqvqLOmZ9CBUUXSa2fzrfG0jxE3AOZp_M5-M [POST] [in C:\Users\admin\Miniconda3\lib\site-packages\flask\app.py:1892]
Traceback (most recent call last):
  File "C:\Users\admin\Miniconda3\lib\site-packages\flask\app.py", line 2447, in wsgi_app
    response = self.full_dispatch_request()
  File "C:\Users\admin\Miniconda3\lib\site-packages\flask\app.py", line 1952, in full_dispatch_request
    rv = self.handle_user_exception(e)
  File "C:\Users\admin\Miniconda3\lib\site-packages\flask\app.py", line 1821, in handle_user_exception
    reraise(exc_type, exc_value, tb)
  File "C:\Users\admin\Miniconda3\lib\site-packages\flask\_compat.py", line 39, in reraise
    raise value
  File "C:\Users\admin\Miniconda3\lib\site-packages\flask\app.py", line 1950, in full_dispatch_request
    rv = self.dispatch_request()
  File "C:\Users\admin\Miniconda3\lib\site-packages\flask\app.py", line 1936, in dispatch_request
    return self.view_functions[rule.endpoint](**req.view_args)
  File "C:\Users\admin\PycharmProjects\natali_flask\application\routes.py", line 197, in reset_password
    user.generate_password_hash(form.password.data)
AttributeError: 'User' object has no attribute 'generate_password_hash'
2021-02-17 14:44:01,067 INFO: Microblog startup [in C:\Users\admin\PycharmProjects\natali_flask\application\__init__.py:43]
2021-02-17 14:51:22,149 INFO: Microblog startup [in C:\Users\admin\PycharmProjects\natali_flask\application\__init__.py:43]
2021-02-22 15:33:27,038 INFO: Microblog startup [in C:\Users\admin\PycharmProjects\natali_flask\application\__init__.py:43]
2021-02-22 16:08:18,688 INFO: Microblog startup [in C:\Users\admin\PycharmProjects\natali_flask\application\__init__.py:43]
2021-02-22 16:28:45,544 INFO: Microblog startup [in C:\Users\admin\PycharmProjects\natali_flask\application\__init__.py:43]
2021-02-22 16:28:55,292 ERROR: Exception on /reset_password_request [POST] [in C:\Users\admin\Miniconda3\lib\site-packages\flask\app.py:1892]
Traceback (most recent call last):
  File "C:\Users\admin\Miniconda3\lib\site-packages\flask\app.py", line 2447, in wsgi_app
    response = self.full_dispatch_request()
  File "C:\Users\admin\Miniconda3\lib\site-packages\flask\app.py", line 1952, in full_dispatch_request
    rv = self.handle_user_exception(e)
  File "C:\Users\admin\Miniconda3\lib\site-packages\flask\app.py", line 1821, in handle_user_exception
    reraise(exc_type, exc_value, tb)
  File "C:\Users\admin\Miniconda3\lib\site-packages\flask\_compat.py", line 39, in reraise
    raise value
  File "C:\Users\admin\Miniconda3\lib\site-packages\flask\app.py", line 1950, in full_dispatch_request
    rv = self.dispatch_request()
  File "C:\Users\admin\Miniconda3\lib\site-packages\flask\app.py", line 1936, in dispatch_request
    return self.view_functions[rule.endpoint](**req.view_args)
  File "C:\Users\admin\PycharmProjects\natali_flask\application\routes.py", line 182, in reset_password_request
    form.send_password_reset_email(user)
  File "C:\Users\admin\PycharmProjects\natali_flask\application\forms.py", line 46, in send_password_reset_email
    user=user, token=token))
  File "C:\Users\admin\PycharmProjects\natali_flask\application\email.py", line 10, in send_email
    mail.send(msg)
  File "C:\Users\admin\Miniconda3\lib\site-packages\flask_mail.py", line 492, in send
    message.send(connection)
  File "C:\Users\admin\Miniconda3\lib\site-packages\flask_mail.py", line 427, in send
    connection.send(self)
  File "C:\Users\admin\Miniconda3\lib\site-packages\flask_mail.py", line 190, in send
    message.as_bytes() if PY3 else message.as_string(),
  File "C:\Users\admin\Miniconda3\lib\site-packages\flask_mail.py", line 385, in as_bytes
    return self._message().as_bytes()
  File "C:\Users\admin\Miniconda3\lib\site-packages\flask_mail.py", line 349, in _message
    f = MIMEBase(*attachment.content_type.split('/'))
AttributeError: 'str' object has no attribute 'content_type'
2021-02-22 16:41:33,980 INFO: Microblog startup [in C:\Users\admin\PycharmProjects\natali_flask\application\__init__.py:43]
2021-02-22 16:41:47,053 ERROR: Exception on /reset_password_request [POST] [in C:\Users\admin\Miniconda3\lib\site-packages\flask\app.py:1892]
Traceback (most recent call last):
  File "C:\Users\admin\Miniconda3\lib\site-packages\flask\app.py", line 2447, in wsgi_app
    response = self.full_dispatch_request()
  File "C:\Users\admin\Miniconda3\lib\site-packages\flask\app.py", line 1952, in full_dispatch_request
    rv = self.handle_user_exception(e)
  File "C:\Users\admin\Miniconda3\lib\site-packages\flask\app.py", line 1821, in handle_user_exception
    reraise(exc_type, exc_value, tb)
  File "C:\Users\admin\Miniconda3\lib\site-packages\flask\_compat.py", line 39, in reraise
    raise value
  File "C:\Users\admin\Miniconda3\lib\site-packages\flask\app.py", line 1950, in full_dispatch_request
    rv = self.dispatch_request()
  File "C:\Users\admin\Miniconda3\lib\site-packages\flask\app.py", line 1936, in dispatch_request
    return self.view_functions[rule.endpoint](**req.view_args)
  File "C:\Users\admin\PycharmProjects\natali_flask\application\routes.py", line 182, in reset_password_request
    form.send_password_reset_email(user)
  File "C:\Users\admin\PycharmProjects\natali_flask\application\forms.py", line 46, in send_password_reset_email
    user=user, token=token))
  File "C:\Users\admin\PycharmProjects\natali_flask\application\email.py", line 10, in send_email
    mail.send(msg)
  File "C:\Users\admin\Miniconda3\lib\site-packages\flask_mail.py", line 492, in send
    message.send(connection)
  File "C:\Users\admin\Miniconda3\lib\site-packages\flask_mail.py", line 427, in send
    connection.send(self)
  File "C:\Users\admin\Miniconda3\lib\site-packages\flask_mail.py", line 190, in send
    message.as_bytes() if PY3 else message.as_string(),
  File "C:\Users\admin\Miniconda3\lib\site-packages\flask_mail.py", line 385, in as_bytes
    return self._message().as_bytes()
  File "C:\Users\admin\Miniconda3\lib\site-packages\flask_mail.py", line 349, in _message
    f = MIMEBase(*attachment.content_type.split('/'))
AttributeError: 'str' object has no attribute 'content_type'
2021-02-22 16:49:38,159 INFO: Microblog startup [in C:\Users\admin\PycharmProjects\natali_flask\application\__init__.py:43]
2021-02-22 16:57:40,360 INFO: Microblog startup [in C:\Users\admin\PycharmProjects\natali_flask\application\__init__.py:43]
2021-02-22 18:30:25,227 INFO: Microblog startup [in C:\Users\admin\PycharmProjects\natali_flask\application\__init__.py:43]
2021-02-26 15:37:59,608 INFO: Microblog startup [in C:\Users\admin\PycharmProjects\natali_flask\application\__init__.py:43]
2021-02-26 15:38:17,213 ERROR: Exception on /reset_password_request [POST] [in C:\Users\admin\Miniconda3\lib\site-packages\flask\app.py:1892]
Traceback (most recent call last):
  File "C:\Users\admin\Miniconda3\lib\site-packages\flask\app.py", line 2447, in wsgi_app
    response = self.full_dispatch_request()
  File "C:\Users\admin\Miniconda3\lib\site-packages\flask\app.py", line 1952, in full_dispatch_request
    rv = self.handle_user_exception(e)
  File "C:\Users\admin\Miniconda3\lib\site-packages\flask\app.py", line 1821, in handle_user_exception
    reraise(exc_type, exc_value, tb)
  File "C:\Users\admin\Miniconda3\lib\site-packages\flask\_compat.py", line 39, in reraise
    raise value
  File "C:\Users\admin\Miniconda3\lib\site-packages\flask\app.py", line 1950, in full_dispatch_request
    rv = self.dispatch_request()
  File "C:\Users\admin\Miniconda3\lib\site-packages\flask\app.py", line 1936, in dispatch_request
    return self.view_functions[rule.endpoint](**req.view_args)
  File "C:\Users\admin\PycharmProjects\natali_flask\application\routes.py", line 182, in reset_password_request
    form.send_password_reset_email(user)
  File "C:\Users\admin\PycharmProjects\natali_flask\application\forms.py", line 46, in send_password_reset_email
    html_body=render_template('email/reset_password.html', user=user, token=token))
  File "C:\Users\admin\PycharmProjects\natali_flask\application\email.py", line 12, in send_email
    with open(a, 'r') as atmt:
FileNotFoundError: [Errno 2] No such file or directory: 'C:\\Users\\admin\\PycharmProjects\\natali_flask\\application/logs/microblog.log'
2021-02-26 15:38:55,102 INFO: Microblog startup [in C:\Users\admin\PycharmProjects\natali_flask\application\__init__.py:43]
