2021-02-17 14:09:47,066 ERROR: Exception on /reset_password_request [GET] [in C:\Users\admin\Miniconda3\lib\site-packages\flask\app.py:1892]
Traceback (most recent call last):
  File "C:\Users\admin\Miniconda3\lib\site-packages\flask\app.py", line 2447, in wsgi_app
    response = self.full_dispatch_request()
  File "C:\Users\admin\Miniconda3\lib\site-packages\flask\app.py", line 1952, in full_dispatch_request
    rv = self.handle_user_exception(e)
  File "C:\Users\admin\Miniconda3\lib\site-packages\flask\app.py", line 1821, in handle_user_exception
    reraise(exc_type, exc_value, tb)
  File "C:\Users\admin\Miniconda3\lib\site-packages\flask\_compat.py", line 39, in reraise
    raise value
  File "C:\Users\admin\Miniconda3\lib\site-packages\flask\app.py", line 1950, in full_dispatch_request
    rv = self.dispatch_request()
  File "C:\Users\admin\Miniconda3\lib\site-packages\flask\app.py", line 1936, in dispatch_request
    return self.view_functions[rule.endpoint](**req.view_args)
  File "C:\Users\admin\PycharmProjects\natali_flask\application\routes.py", line 184, in reset_password_request
    return render_template('reset_password.html', title='Reset Password', form=form)
  File "C:\Users\admin\Miniconda3\lib\site-packages\flask\templating.py", line 140, in render_template
    ctx.app,
  File "C:\Users\admin\Miniconda3\lib\site-packages\flask\templating.py", line 120, in _render
    rv = template.render(context)
  File "C:\Users\admin\Miniconda3\lib\site-packages\jinja2\environment.py", line 1090, in render
    self.environment.handle_exception()
  File "C:\Users\admin\Miniconda3\lib\site-packages\jinja2\environment.py", line 832, in handle_exception
    reraise(*rewrite_traceback_stack(source=source))
  File "C:\Users\admin\Miniconda3\lib\site-packages\jinja2\_compat.py", line 28, in reraise
    raise value.with_traceback(tb)
  File "C:\Users\admin\PycharmProjects\natali_flask\application\templates\reset_password.html", line 1, in top-level template code
    {% extends "base.html" %}
  File "C:\Users\admin\PycharmProjects\natali_flask\application\templates\base.html", line 29, in top-level template code
    {% block content %}{% endblock %}
  File "C:\Users\admin\PycharmProjects\natali_flask\application\templates\reset_password.html", line 8, in block "content"
    {{ form.password.label }}<br>
  File "C:\Users\admin\Miniconda3\lib\site-packages\jinja2\environment.py", line 471, in getattr
    return getattr(obj, attribute)
jinja2.exceptions.UndefinedError: 'application.forms.ResetPasswordRequestForm object' has no attribute 'password'
2021-02-17 14:11:31,512 INFO: Microblog startup [in C:\Users\admin\PycharmProjects\natali_flask\application\__init__.py:43]
2021-02-17 14:11:41,277 ERROR: Exception on /reset_password_request [POST] [in C:\Users\admin\Miniconda3\lib\site-packages\flask\app.py:1892]
Traceback (most recent call last):
  File "C:\Users\admin\Miniconda3\lib\site-packages\flask\app.py", line 2447, in wsgi_app
    response = self.full_dispatch_request()
  File "C:\Users\admin\Miniconda3\lib\site-packages\flask\app.py", line 1952, in full_dispatch_request
    rv = self.handle_user_exception(e)
  File "C:\Users\admin\Miniconda3\lib\site-packages\flask\app.py", line 1821, in handle_user_exception
    reraise(exc_type, exc_value, tb)
  File "C:\Users\admin\Miniconda3\lib\site-packages\flask\_compat.py", line 39, in reraise
    raise value
  File "C:\Users\admin\Miniconda3\lib\site-packages\flask\app.py", line 1950, in full_dispatch_request
    rv = self.dispatch_request()
  File "C:\Users\admin\Miniconda3\lib\site-packages\flask\app.py", line 1936, in dispatch_request
    return self.view_functions[rule.endpoint](**req.view_args)
  File "C:\Users\admin\PycharmProjects\natali_flask\application\routes.py", line 181, in reset_password_request
    form.send_password_reset_email(user)
  File "C:\Users\admin\PycharmProjects\natali_flask\application\forms.py", line 46, in send_password_reset_email
    user=user, token=token))
  File "C:\Users\admin\PycharmProjects\natali_flask\application\forms.py", line 63, in send_email
    Thread(target=send_async_email, args=(app, msg)).start()
NameError: name 'Thread' is not defined
2021-02-17 14:20:44,971 INFO: Microblog startup [in C:\Users\admin\PycharmProjects\natali_flask\application\__init__.py:43]
2021-02-17 14:21:18,050 ERROR: Exception on /reset_password/eyJ0eXAiOiJKV1QiLCJhbGciOiJIUzI1NiJ9.eyJyZXNldF9wYXNzd29yZCI6NSwiZXhwIjoxNjEzNTY1MDU2LjY0MjM4MTR9.fUi_XjQv_7c2hk681jTqfAZF0-Jb_y9zv8zpqge6emY [GET] [in C:\Users\admin\Miniconda3\lib\site-packages\flask\app.py:1892]
Traceback (most recent call last):
  File "C:\Users\admin\Miniconda3\lib\site-packages\flask\app.py", line 2447, in wsgi_app
    response = self.full_dispatch_request()
  File "C:\Users\admin\Miniconda3\lib\site-packages\flask\app.py", line 1952, in full_dispatch_request
    rv = self.handle_user_exception(e)
  File "C:\Users\admin\Miniconda3\lib\site-packages\flask\app.py", line 1821, in handle_user_exception
    reraise(exc_type, exc_value, tb)
  File "C:\Users\admin\Miniconda3\lib\site-packages\flask\_compat.py", line 39, in reraise
    raise value
  File "C:\Users\admin\Miniconda3\lib\site-packages\flask\app.py", line 1950, in full_dispatch_request
    rv = self.dispatch_request()
  File "C:\Users\admin\Miniconda3\lib\site-packages\flask\app.py", line 1936, in dispatch_request
    return self.view_functions[rule.endpoint](**req.view_args)
  File "C:\Users\admin\PycharmProjects\natali_flask\application\routes.py", line 191, in reset_password
    user = User.verify_reset_password_token(token)
NameError: name 'User' is not defined
2021-02-17 14:23:00,725 INFO: Microblog startup [in C:\Users\admin\PycharmProjects\natali_flask\application\__init__.py:43]
2021-02-17 14:23:29,804 ERROR: Exception on /reset_password/eyJ0eXAiOiJKV1QiLCJhbGciOiJIUzI1NiJ9.eyJyZXNldF9wYXNzd29yZCI6NSwiZXhwIjoxNjEzNTY1MTg4LjkyMDYyMjZ9.-o1n4XW5ZREkJBUOwLqFYnllmf_12f7SIhEw5CB_rxk [POST] [in C:\Users\admin\Miniconda3\lib\site-packages\flask\app.py:1892]
Traceback (most recent call last):
  File "C:\Users\admin\Miniconda3\lib\site-packages\flask\app.py", line 2447, in wsgi_app
    response = self.full_dispatch_request()
  File "C:\Users\admin\Miniconda3\lib\site-packages\flask\app.py", line 1952, in full_dispatch_request
    rv = self.handle_user_exception(e)
  File "C:\Users\admin\Miniconda3\lib\site-packages\flask\app.py", line 1821, in handle_user_exception
    reraise(exc_type, exc_value, tb)
  File "C:\Users\admin\Miniconda3\lib\site-packages\flask\_compat.py", line 39, in reraise
    raise value
  File "C:\Users\admin\Miniconda3\lib\site-packages\flask\app.py", line 1950, in full_dispatch_request
    rv = self.dispatch_request()
  File "C:\Users\admin\Miniconda3\lib\site-packages\flask\app.py", line 1936, in dispatch_request
    return self.view_functions[rule.endpoint](**req.view_args)
  File "C:\Users\admin\PycharmProjects\natali_flask\application\routes.py", line 197, in reset_password
    user.set_password(form.password.data)
AttributeError: 'User' object has no attribute 'set_password'
2021-02-17 14:32:29,177 INFO: Microblog startup [in C:\Users\admin\PycharmProjects\natali_flask\application\__init__.py:43]
2021-02-17 14:34:50,191 INFO: Microblog startup [in C:\Users\admin\PycharmProjects\natali_flask\application\__init__.py:43]
2021-02-17 14:35:28,093 ERROR: Exception on /reset_password/eyJ0eXAiOiJKV1QiLCJhbGciOiJIUzI1NiJ9.eyJyZXNldF9wYXNzd29yZCI6NSwiZXhwIjoxNjEzNTY1OTA0LjI1MDM5ODJ9.JWfHMWyLXuKqtHzQ9qvJmyPVrGVN6VHYyiJ1ZTq1jDQ [POST] [in C:\Users\admin\Miniconda3\lib\site-packages\flask\app.py:1892]
Traceback (most recent call last):
  File "C:\Users\admin\Miniconda3\lib\site-packages\flask\app.py", line 2447, in wsgi_app
    response = self.full_dispatch_request()
  File "C:\Users\admin\Miniconda3\lib\site-packages\flask\app.py", line 1952, in full_dispatch_request
    rv = self.handle_user_exception(e)
  File "C:\Users\admin\Miniconda3\lib\site-packages\flask\app.py", line 1821, in handle_user_exception
    reraise(exc_type, exc_value, tb)
  File "C:\Users\admin\Miniconda3\lib\site-packages\flask\_compat.py", line 39, in reraise
    raise value
  File "C:\Users\admin\Miniconda3\lib\site-packages\flask\app.py", line 1950, in full_dispatch_request
    rv = self.dispatch_request()
  File "C:\Users\admin\Miniconda3\lib\site-packages\flask\app.py", line 1936, in dispatch_request
    return self.view_functions[rule.endpoint](**req.view_args)
  File "C:\Users\admin\PycharmProjects\natali_flask\application\routes.py", line 197, in reset_password
    user.set_password(form.password.data)
AttributeError: 'User' object has no attribute 'set_password'
2021-02-17 14:37:29,960 INFO: Microblog startup [in C:\Users\admin\PycharmProjects\natali_flask\application\__init__.py:43]
