2021-02-26 15:39:04,305 ERROR: Exception on /reset_password_request [POST] [in C:\Users\admin\Miniconda3\lib\site-packages\flask\app.py:1892]
Traceback (most recent call last):
  File "C:\Users\admin\Miniconda3\lib\site-packages\flask\app.py", line 2447, in wsgi_app
    response = self.full_dispatch_request()
  File "C:\Users\admin\Miniconda3\lib\site-packages\flask\app.py", line 1952, in full_dispatch_request
    rv = self.handle_user_exception(e)
  File "C:\Users\admin\Miniconda3\lib\site-packages\flask\app.py", line 1821, in handle_user_exception
    reraise(exc_type, exc_value, tb)
  File "C:\Users\admin\Miniconda3\lib\site-packages\flask\_compat.py", line 39, in reraise
    raise value
  File "C:\Users\admin\Miniconda3\lib\site-packages\flask\app.py", line 1950, in full_dispatch_request
    rv = self.dispatch_request()
  File "C:\Users\admin\Miniconda3\lib\site-packages\flask\app.py", line 1936, in dispatch_request
    return self.view_functions[rule.endpoint](**req.view_args)
  File "C:\Users\admin\PycharmProjects\natali_flask\application\routes.py", line 182, in reset_password_request
    form.send_password_reset_email(user)
  File "C:\Users\admin\PycharmProjects\natali_flask\application\forms.py", line 46, in send_password_reset_email
    html_body=render_template('email/reset_password.html', user=user, token=token))
  File "C:\Users\admin\PycharmProjects\natali_flask\application\email.py", line 12, in send_email
    with open(a, 'r') as atmt:
FileNotFoundError: [Errno 2] No such file or directory: 'C:\\Users\\admin\\PycharmProjects\\natali_flask\\application\\logs\\microblog.log'
2021-02-26 15:45:05,654 INFO: Microblog startup [in C:\Users\admin\PycharmProjects\natali_flask\application\__init__.py:43]
2021-02-26 15:45:15,253 ERROR: Exception on /reset_password_request [POST] [in C:\Users\admin\Miniconda3\lib\site-packages\flask\app.py:1892]
Traceback (most recent call last):
  File "C:\Users\admin\Miniconda3\lib\site-packages\flask\app.py", line 2447, in wsgi_app
    response = self.full_dispatch_request()
  File "C:\Users\admin\Miniconda3\lib\site-packages\flask\app.py", line 1952, in full_dispatch_request
    rv = self.handle_user_exception(e)
  File "C:\Users\admin\Miniconda3\lib\site-packages\flask\app.py", line 1821, in handle_user_exception
    reraise(exc_type, exc_value, tb)
  File "C:\Users\admin\Miniconda3\lib\site-packages\flask\_compat.py", line 39, in reraise
    raise value
  File "C:\Users\admin\Miniconda3\lib\site-packages\flask\app.py", line 1950, in full_dispatch_request
    rv = self.dispatch_request()
  File "C:\Users\admin\Miniconda3\lib\site-packages\flask\app.py", line 1936, in dispatch_request
    return self.view_functions[rule.endpoint](**req.view_args)
  File "C:\Users\admin\PycharmProjects\natali_flask\application\routes.py", line 182, in reset_password_request
    form.send_password_reset_email(user)
  File "C:\Users\admin\PycharmProjects\natali_flask\application\forms.py", line 46, in send_password_reset_email
    html_body=render_template('email/reset_password.html', user=user, token=token))
  File "C:\Users\admin\PycharmProjects\natali_flask\application\email.py", line 12, in send_email
    with open(a, 'r') as atmt:
FileNotFoundError: [Errno 2] No such file or directory: 'C:\\Users\\admin\\PycharmProjects\\natali_flask\\application/logs/microblog.log'
2021-02-26 16:01:05,961 INFO: Microblog startup [in C:\Users\admin\PycharmProjects\natali_flask\application\__init__.py:43]
2021-02-26 16:01:30,184 ERROR: Exception on /reset_password_request [POST] [in C:\Users\admin\Miniconda3\lib\site-packages\flask\app.py:1892]
Traceback (most recent call last):
  File "C:\Users\admin\Miniconda3\lib\site-packages\flask\app.py", line 2447, in wsgi_app
    response = self.full_dispatch_request()
  File "C:\Users\admin\Miniconda3\lib\site-packages\flask\app.py", line 1952, in full_dispatch_request
    rv = self.handle_user_exception(e)
  File "C:\Users\admin\Miniconda3\lib\site-packages\flask\app.py", line 1821, in handle_user_exception
    reraise(exc_type, exc_value, tb)
  File "C:\Users\admin\Miniconda3\lib\site-packages\flask\_compat.py", line 39, in reraise
    raise value
  File "C:\Users\admin\Miniconda3\lib\site-packages\flask\app.py", line 1950, in full_dispatch_request
    rv = self.dispatch_request()
  File "C:\Users\admin\Miniconda3\lib\site-packages\flask\app.py", line 1936, in dispatch_request
    return self.view_functions[rule.endpoint](**req.view_args)
  File "C:\Users\admin\PycharmProjects\natali_flask\application\routes.py", line 182, in reset_password_request
    form.send_password_reset_email(user)
  File "C:\Users\admin\PycharmProjects\natali_flask\application\forms.py", line 46, in send_password_reset_email
    html_body=render_template('email/reset_password.html', user=user, token=token))
  File "C:\Users\admin\PycharmProjects\natali_flask\application\email.py", line 12, in send_email
    with open(a, 'r') as atmt:
FileNotFoundError: [Errno 2] No such file or directory: 'C:\\Users\\admin\\PycharmProjects\\natali_flask\\application/logs/microblog.log'
2021-02-26 16:04:55,666 INFO: Microblog startup [in C:\Users\admin\PycharmProjects\natali_flask\application\__init__.py:43]
2021-02-26 16:05:07,707 ERROR: Exception on /reset_password_request [POST] [in C:\Users\admin\Miniconda3\lib\site-packages\flask\app.py:1892]
Traceback (most recent call last):
  File "C:\Users\admin\Miniconda3\lib\site-packages\flask\app.py", line 2447, in wsgi_app
    response = self.full_dispatch_request()
  File "C:\Users\admin\Miniconda3\lib\site-packages\flask\app.py", line 1952, in full_dispatch_request
    rv = self.handle_user_exception(e)
  File "C:\Users\admin\Miniconda3\lib\site-packages\flask\app.py", line 1821, in handle_user_exception
    reraise(exc_type, exc_value, tb)
  File "C:\Users\admin\Miniconda3\lib\site-packages\flask\_compat.py", line 39, in reraise
    raise value
  File "C:\Users\admin\Miniconda3\lib\site-packages\flask\app.py", line 1950, in full_dispatch_request
    rv = self.dispatch_request()
  File "C:\Users\admin\Miniconda3\lib\site-packages\flask\app.py", line 1936, in dispatch_request
    return self.view_functions[rule.endpoint](**req.view_args)
  File "C:\Users\admin\PycharmProjects\natali_flask\application\routes.py", line 182, in reset_password_request
    form.send_password_reset_email(user)
  File "C:\Users\admin\PycharmProjects\natali_flask\application\forms.py", line 46, in send_password_reset_email
    html_body=render_template('email/reset_password.html', user=user, token=token))
  File "C:\Users\admin\PycharmProjects\natali_flask\application\email.py", line 12, in send_email
    with open(a, 'r') as atmt:
FileNotFoundError: [Errno 2] No such file or directory: 'C:\\Users\\admin\\PycharmProjects\\natali_flask\\application/logs/microblog.log'
2021-02-26 16:08:12,259 INFO: Microblog startup [in C:\Users\admin\PycharmProjects\natali_flask\application\__init__.py:43]
2021-03-01 20:44:04,340 INFO: Microblog startup [in C:\Users\admin\PycharmProjects\natali_flask\application\__init__.py:45]
2021-03-02 12:23:21,838 INFO: Microblog startup [in C:\Users\admin\PycharmProjects\natali_flask\application\__init__.py:45]
2021-03-02 12:30:11,724 INFO: Microblog startup [in C:\Users\admin\PycharmProjects\natali_flask\application\__init__.py:45]
2021-03-02 13:07:21,000 INFO: Microblog startup [in C:\Users\admin\PycharmProjects\natali_flask\application\__init__.py:45]
2021-03-02 13:14:52,832 INFO: Microblog startup [in C:\Users\admin\PycharmProjects\natali_flask\application\__init__.py:45]
2021-03-02 13:16:31,201 INFO: Microblog startup [in C:\Users\admin\PycharmProjects\natali_flask\application\__init__.py:45]
