2021-02-17 13:54:22,687 ERROR: Exception on /reset_password_request [GET] [in C:\Users\admin\Miniconda3\lib\site-packages\flask\app.py:1892]
Traceback (most recent call last):
  File "C:\Users\admin\Miniconda3\lib\site-packages\flask\app.py", line 2447, in wsgi_app
    response = self.full_dispatch_request()
  File "C:\Users\admin\Miniconda3\lib\site-packages\flask\app.py", line 1952, in full_dispatch_request
    rv = self.handle_user_exception(e)
  File "C:\Users\admin\Miniconda3\lib\site-packages\flask\app.py", line 1821, in handle_user_exception
    reraise(exc_type, exc_value, tb)
  File "C:\Users\admin\Miniconda3\lib\site-packages\flask\_compat.py", line 39, in reraise
    raise value
  File "C:\Users\admin\Miniconda3\lib\site-packages\flask\app.py", line 1950, in full_dispatch_request
    rv = self.dispatch_request()
  File "C:\Users\admin\Miniconda3\lib\site-packages\flask\app.py", line 1936, in dispatch_request
    return self.view_functions[rule.endpoint](**req.view_args)
  File "C:\Users\admin\PycharmProjects\natali_flask\application\routes.py", line 184, in reset_password_request
    return render_template('reset_password.html', title='Reset Password', form=form)
  File "C:\Users\admin\Miniconda3\lib\site-packages\flask\templating.py", line 140, in render_template
    ctx.app,
  File "C:\Users\admin\Miniconda3\lib\site-packages\flask\templating.py", line 120, in _render
    rv = template.render(context)
  File "C:\Users\admin\Miniconda3\lib\site-packages\jinja2\environment.py", line 1090, in render
    self.environment.handle_exception()
  File "C:\Users\admin\Miniconda3\lib\site-packages\jinja2\environment.py", line 832, in handle_exception
    reraise(*rewrite_traceback_stack(source=source))
  File "C:\Users\admin\Miniconda3\lib\site-packages\jinja2\_compat.py", line 28, in reraise
    raise value.with_traceback(tb)
  File "C:\Users\admin\PycharmProjects\natali_flask\application\templates\reset_password.html", line 1, in top-level template code
    {% extends "base.html" %}
  File "C:\Users\admin\PycharmProjects\natali_flask\application\templates\base.html", line 29, in top-level template code
    {% block content %}{% endblock %}
  File "C:\Users\admin\PycharmProjects\natali_flask\application\templates\reset_password.html", line 8, in block "content"
    {{ form.password.label }}<br>
  File "C:\Users\admin\Miniconda3\lib\site-packages\jinja2\environment.py", line 471, in getattr
    return getattr(obj, attribute)
jinja2.exceptions.UndefinedError: 'application.forms.ResetPasswordRequestForm object' has no attribute 'password'
2021-02-17 14:06:11,240 ERROR: Exception on /reset_password_request [GET] [in C:\Users\admin\Miniconda3\lib\site-packages\flask\app.py:1892]
Traceback (most recent call last):
  File "C:\Users\admin\Miniconda3\lib\site-packages\flask\app.py", line 2447, in wsgi_app
    response = self.full_dispatch_request()
  File "C:\Users\admin\Miniconda3\lib\site-packages\flask\app.py", line 1952, in full_dispatch_request
    rv = self.handle_user_exception(e)
  File "C:\Users\admin\Miniconda3\lib\site-packages\flask\app.py", line 1821, in handle_user_exception
    reraise(exc_type, exc_value, tb)
  File "C:\Users\admin\Miniconda3\lib\site-packages\flask\_compat.py", line 39, in reraise
    raise value
  File "C:\Users\admin\Miniconda3\lib\site-packages\flask\app.py", line 1950, in full_dispatch_request
    rv = self.dispatch_request()
  File "C:\Users\admin\Miniconda3\lib\site-packages\flask\app.py", line 1936, in dispatch_request
    return self.view_functions[rule.endpoint](**req.view_args)
  File "C:\Users\admin\PycharmProjects\natali_flask\application\routes.py", line 184, in reset_password_request
    return render_template('reset_password.html', title='Reset Password', form=form)
  File "C:\Users\admin\Miniconda3\lib\site-packages\flask\templating.py", line 140, in render_template
    ctx.app,
  File "C:\Users\admin\Miniconda3\lib\site-packages\flask\templating.py", line 120, in _render
    rv = template.render(context)
  File "C:\Users\admin\Miniconda3\lib\site-packages\jinja2\environment.py", line 1090, in render
    self.environment.handle_exception()
  File "C:\Users\admin\Miniconda3\lib\site-packages\jinja2\environment.py", line 832, in handle_exception
    reraise(*rewrite_traceback_stack(source=source))
  File "C:\Users\admin\Miniconda3\lib\site-packages\jinja2\_compat.py", line 28, in reraise
    raise value.with_traceback(tb)
  File "C:\Users\admin\PycharmProjects\natali_flask\application\templates\reset_password.html", line 1, in top-level template code
    {% extends "base.html" %}
  File "C:\Users\admin\PycharmProjects\natali_flask\application\templates\base.html", line 29, in top-level template code
    {% block content %}{% endblock %}
  File "C:\Users\admin\PycharmProjects\natali_flask\application\templates\reset_password.html", line 8, in block "content"
    {{ form.password.label }}<br>
  File "C:\Users\admin\Miniconda3\lib\site-packages\jinja2\environment.py", line 471, in getattr
    return getattr(obj, attribute)
jinja2.exceptions.UndefinedError: 'application.forms.ResetPasswordRequestForm object' has no attribute 'password'
2021-02-17 14:06:24,923 INFO: Microblog startup [in C:\Users\admin\PycharmProjects\natali_flask\application\__init__.py:43]
2021-02-17 14:06:43,524 ERROR: Exception on /reset_password_request [GET] [in C:\Users\admin\Miniconda3\lib\site-packages\flask\app.py:1892]
Traceback (most recent call last):
  File "C:\Users\admin\Miniconda3\lib\site-packages\flask\app.py", line 2447, in wsgi_app
    response = self.full_dispatch_request()
  File "C:\Users\admin\Miniconda3\lib\site-packages\flask\app.py", line 1952, in full_dispatch_request
    rv = self.handle_user_exception(e)
  File "C:\Users\admin\Miniconda3\lib\site-packages\flask\app.py", line 1821, in handle_user_exception
    reraise(exc_type, exc_value, tb)
  File "C:\Users\admin\Miniconda3\lib\site-packages\flask\_compat.py", line 39, in reraise
    raise value
  File "C:\Users\admin\Miniconda3\lib\site-packages\flask\app.py", line 1950, in full_dispatch_request
    rv = self.dispatch_request()
  File "C:\Users\admin\Miniconda3\lib\site-packages\flask\app.py", line 1936, in dispatch_request
    return self.view_functions[rule.endpoint](**req.view_args)
  File "C:\Users\admin\PycharmProjects\natali_flask\application\routes.py", line 184, in reset_password_request
    return render_template('reset_password.html', title='Reset Password', form=form)
  File "C:\Users\admin\Miniconda3\lib\site-packages\flask\templating.py", line 140, in render_template
    ctx.app,
  File "C:\Users\admin\Miniconda3\lib\site-packages\flask\templating.py", line 120, in _render
    rv = template.render(context)
  File "C:\Users\admin\Miniconda3\lib\site-packages\jinja2\environment.py", line 1090, in render
    self.environment.handle_exception()
  File "C:\Users\admin\Miniconda3\lib\site-packages\jinja2\environment.py", line 832, in handle_exception
    reraise(*rewrite_traceback_stack(source=source))
  File "C:\Users\admin\Miniconda3\lib\site-packages\jinja2\_compat.py", line 28, in reraise
    raise value.with_traceback(tb)
  File "C:\Users\admin\PycharmProjects\natali_flask\application\templates\reset_password.html", line 1, in top-level template code
    {% extends "base.html" %}
  File "C:\Users\admin\PycharmProjects\natali_flask\application\templates\base.html", line 29, in top-level template code
    {% block content %}{% endblock %}
  File "C:\Users\admin\PycharmProjects\natali_flask\application\templates\reset_password.html", line 8, in block "content"
    {{ form.password.label }}<br>
  File "C:\Users\admin\Miniconda3\lib\site-packages\jinja2\environment.py", line 471, in getattr
    return getattr(obj, attribute)
jinja2.exceptions.UndefinedError: 'application.forms.ResetPasswordRequestForm object' has no attribute 'password'
2021-02-17 14:09:40,855 INFO: Microblog startup [in C:\Users\admin\PycharmProjects\natali_flask\application\__init__.py:43]
